<?xml version="1.0" encoding="UTF-8" standalone="no"?>
<svg xmlns:rdf="http://www.w3.org/1999/02/22-rdf-syntax-ns#" xmlns="http://www.w3.org/2000/svg" height="360" width="640" version="1.1" xmlns:cc="http://creativecommons.org/ns#" xmlns:xlink="http://www.w3.org/1999/xlink" xmlns:dc="http://purl.org/dc/elements/1.1/">
<metadata>
<rdf:RDF>
<cc:Work rdf:about="">
<dc:format>image/svg+xml</dc:format>
<dc:type rdf:resource="http://purl.org/dc/dcmitype/StillImage"/>
<dc:title>Fenster (Fenstersystem)</dc:title>
<dc:creator>
<cc:Agent>
<dc:title>Shmuel Csaba Otto Traian</dc:title>
</cc:Agent>
</dc:creator>
<dc:date>2013-10-05</dc:date>
<dc:rights>
<cc:Agent>
<dc:title>GFDL 1.3+ or CC-BY-SA 3.0+</dc:title>
</cc:Agent>
</dc:rights>
</cc:Work>
</rdf:RDF>
</metadata>
<title>Window (windowing system)</title>
<defs>
<pattern id="b" xlink:href="#Polkadots-med" patternTransform="matrix(-.1676 5.984 -4.558 -.1277 -837.6 693.5)"/>
<pattern id="c" xlink:href="#Polkadots-med" patternTransform="matrix(4.879 0 0 5.008 695 916.2)"/>
<pattern id="Polkadots-med" width="10" patternUnits="userSpaceOnUse" patternTransform="translate(0) scale(10)" height="10">
<circle cy=".81" cx="2.567" r=".15"/>
<circle cy="2.33" cx="3.048" r=".15"/>
<circle cy="2.415" cx="4.418" r=".15"/>
<circle cy="3.029" cx="1.844" r=".15"/>
<circle cy="1.363" cx="6.08" r=".15"/>
<circle cy="4.413" cx="5.819" r=".15"/>
<circle cy="4.048" cx="4.305" r=".15"/>
<circle cy="3.045" cx="5.541" r=".15"/>
<circle cy="5.527" cx="4.785" r=".15"/>
<circle cy="5.184" cx="2.667" r=".15"/>
<circle cy="1.448" cx="7.965" r=".15"/>
<circle cy="5.049" cx="7.047" r=".15"/>
<circle cy=".895" cx="4.34" r=".15"/>
<circle cy=".34" cx="7.125" r=".15"/>
<circle cy="1.049" cx="9.553" r=".15"/>
<circle cy="2.689" cx="7.006" r=".15"/>
<circle cy="2.689" cx="8.909" r=".15"/>
<circle cy="4.407" cx="9.315" r=".15"/>
<circle cy="3.87" cx="7.82" r=".15"/>
<circle cy="5.948" cx="8.27" r=".15"/>
<circle cy="7.428" cx="7.973" r=".15"/>
<circle cy="8.072" cx="9.342" r=".15"/>
<circle cy="9.315" cx="8.206" r=".15"/>
<circle cy="9.475" cx="9.682" r=".15"/>
<circle cy="6.186" cx="9.688" r=".15"/>
<circle cy="6.296" cx="3.379" r=".15"/>
<circle cy="8.204" cx="2.871" r=".15"/>
<circle cy="8.719" cx="4.59" r=".15"/>
<circle cy="9.671" cx="3.181" r=".15"/>
<circle cy="7.315" cx="5.734" r=".15"/>
<circle cy="6.513" cx="6.707" r=".15"/>
<circle cy="9.67" cx="5.73" r=".15"/>
<circle cy="8.373" cx="6.535" r=".15"/>
<circle cy="7.154" cx="4.37" r=".15"/>
<circle cy="7.25" cx=".622" r=".15"/>
<circle cy="5.679" cx=".831" r=".15"/>
<circle cy="8.519" cx="1.257" r=".15"/>
<circle cy="6.877" cx="1.989" r=".15"/>
<circle cy="3.181" cx=".374" r=".15"/>
<circle cy="1.664" cx="1.166" r=".15"/>
<circle cy=".093" cx="1.151" r=".15"/>
<circle cy="10.09" cx="1.151" r=".15"/>
<circle cy="4.451" cx="1.302" r=".15"/>
<circle cy="3.763" cx="3.047" r=".15"/>
</pattern>
<pattern id="a" xlink:href="#e" patternTransform="matrix(2.63 2.63 -14.5 14.5 530.4 834.3)"/>
<pattern id="e" width="9" patternUnits="userSpaceOnUse" patternTransform="translate(0) scale(10)" height="1">
<rect height="2" width="1" y="-.5" x="0" fill="#0197ff"/>
</pattern>
<filter id="d">
<feGaussianBlur stdDeviation="0.90625011"/>
</filter>
<marker id="DotSC" refY="0.0" refX="0.0" overflow="visible" orient="auto">
<path d="m-2.5-1c0 2.76-2.24 5-5 5s-5-2.24-5-5 2.24-5 5-5 5 2.24 5 5z" fill-rule="evenodd" transform="scale(.2) translate(7.4 1)" stroke="#333" stroke-width="1pt" fill="#333"/>
</marker>
<marker id="Arrow2SendV" refY="0.0" refX="0.0" overflow="visible" orient="auto">
<path stroke-linejoin="round" d="m8.719 4.034l-10.93-4.018 10.93-4.018c-1.746 2.372-1.736 5.617 0 8.035z" fill-rule="evenodd" transform="scale(.3) rotate(180) translate(-2.3)" stroke="#333" stroke-width=".625" fill="#333"/>
</marker>
</defs>
<g transform="translate(0 -692.4)">
<rect height="358" width="478" stroke="#000" stroke-linecap="round" y="693.4" x="1" stroke-width="2" fill="#ff0"/>
<rect transform="translate(0 692.4)" height="349" width="469" y="5.5" x="5.5" fill="#fff"/>
<rect height="269" filter="url(#d)" width="456" stroke="#0197fd" stroke-linecap="round" y="747.9" x="7.5" stroke-width="3" fill="url(#a)"/>
<g stroke="#000" stroke-linecap="round">
<rect height="349" width="469" y="697.9" x="5.5" fill="none"/>
<rect height="29" width="469" y="697.9" x="5.5" fill="#fdd99b"/>
<rect height="19" width="469" y="726.9" x="5.5" fill="#d9bb7a"/>
<rect height="19" width="469" y="1028" x="5.5" fill="#d9bb7a"/>
<rect height="9" width="460" y="1019" x="5.5" fill="#e6e6e6"/>
<rect transform="rotate(-90)" height="9" width="272" y="465.5" x="-1019" fill="#e6e6e6"/>
<rect height="9" width="460" y="1019" x="5.5" fill="url(#c)"/>
<rect height="9" width="9" y="1019" x="465.5" fill="none"/>
<g fill="#ffc022">
<rect y="707.9" width="9" x="449.3" height="9"/>
<rect y="707.9" width="9" x="429.3" height="9"/>
<rect y="707.9" width="9" x="409.3" height="9"/>
<rect y="707.9" width="9" x="389.3" height="9"/>
</g>
<rect transform="rotate(-90)" height="9" width="272" y="465.5" x="-1019" fill="url(#b)"/>
<rect rx="4" ry="4" height="30" width="7" y="811.3" x="466.5" fill="#565248"/>
</g>
<rect ry="4" rx="4" transform="rotate(-90)" height="199" width="7" stroke="#000" stroke-linecap="round" y="136" x="-1027" fill="#565248"/>
<text style="text-anchor:middle;text-align:center" font-size="13px" y="716.69128" x="453.82367" font-family="Liberation Mono">
<tspan y="716.69128" x="453.82367">×</tspan>
</text>
<text style="text-anchor:middle;text-align:center" font-size="13px" y="717.36218" x="393.8205" font-family="Liberation Mono">
<tspan y="717.36218" x="393.8205">°</tspan>
</text>
<rect height="4.875" width="4.875" stroke="#000" stroke-linecap="round" y="709.9" x="431.4" fill="none"/>
<path stroke="#000" stroke-width="1px" d="m411.2 715h5.145" fill="none"/>
<text font-size="13px" y="722.05823" x="499.47473" font-family="Serif">
<tspan y="722.05823" x="499.47473"/>
</text>
</g>
<g stroke="#000" stroke-linecap="round">
<switch>
<g systemLanguage="en">
<rect rx="5" ry="5" height="29.12" width="34.72" y="35.63" x="57.98" fill="#816647"/>
<rect height="102" width="69.37" y="53.5" x="57.98" fill="#816647"/>
<rect height="102" width="69.37" y="161.3" x="251.4" fill="#b3defd"/>
</g>
<g systemLanguage="ru">
<rect rx="5" ry="5" height="29.12" width="50" y="35.63" x="57.98" fill="#816647"/>
<rect height="102" width="85" y="53.5" x="57.98" fill="#816647"/>
<rect height="102" width="85" y="161.3" x="251.4" fill="#b3defd"/>
</g>
</switch>
</g>
<switch>
<g systemLanguage="en">
<g>
<g font-size="13px">
<g font-family="Serif" font-weight="bold">
<text y="12.815918" x="493.64224">
<tspan y="12.815918" x="493.64224">Window border</tspan>
</text>
<text style="text-anchor:end;text-align:end">
<tspan x="600" y="253">Vertical</tspan><tspan y="269" x="600">scroll bar</tspan></text>
<text style="text-anchor:end;text-align:end">
<tspan x="600" y="311">Horizontal</tspan><tspan x="600" y="327">scroll bar</tspan></text>
</g>
<text y="48.627445" x="102.74393" style="text-anchor:middle;text-align:center" xml:space="preserve" font-family="Liberation Mono">
<tspan y="48.627445" x="102.74393">File  Edit  View   Help</tspan>
</text>
<g font-family="Serif" font-weight="bold">
<text y="718.32703" x="241" style="word-spacing:0px;letter-spacing:2px;text-anchor:middle;text-align:center;font-size:16px;font-weight:bold" transform="translate(0 -692)">Window Title</text>
<text y="31.123611" x="493">
<tspan y="31.123611" x="493">Title bar &amp; buttons</tspan>
</text>
<text y="52.988178" x="493">
<tspan y="52.988178" x="493">Menu bar &amp;</tspan><tspan y="69.238174" x="493">entries</tspan><tspan y="85.488182" x="493">Pull down menu</tspan>
</text>
<text y="349.84644" x="493">Status bar</text>
<text y="202.11395" x="493">Context menu</text>
</g>
</g>
<g font-size="13px" font-family="Liberation Mono">
<text y="68.524216" x="68.985138" fill="#eee">
<tspan y="68.524216" x="68.985138">Undo</tspan>
<tspan y="84.774216" x="68.985138">Redo</tspan>
<tspan y="101.02422" x="68.985138">Cut</tspan>
<tspan y="117.27422" x="68.985138">Copy</tspan>
<tspan y="133.52422" x="68.985138">Paste</tspan>
<tspan y="149.77422" x="68.985138">Delete</tspan>
</text>
<text y="176.2869" x="262.74088">
<tspan y="176.2869" x="262.74088">Undo</tspan>
<tspan y="192.5369" x="262.74088">Redo</tspan>
<tspan y="208.7869" x="262.74088">Cut</tspan>
<tspan y="225.0369" x="262.74088">Copy</tspan>
<tspan y="241.2869" x="262.74088">Paste</tspan>
<tspan y="257.5369" x="262.74088">Delete</tspan>
</text>
<text y="349.28467" x="37.042507" style="text-anchor:middle;text-align:center">
<tspan y="349.28467" x="37.042507">Status</tspan>
</text>
</g>
<text font-size="13px" font-family="Serif" y="154.7383" x="489" font-weight="bold" fill="#09f">Window content</text>
</g>
</g>
<g systemLanguage="ru">
<g>
<g font-size="13px">
<g font-family="Serif" font-weight="bold">
<text y="12.815918" x="493.64224">
<tspan y="12.815918" x="493.64224">Рамка окна</tspan>
</text>
<text style="text-anchor:end;text-align:end">
<tspan x="610" y="264">Вертикальная</tspan><tspan y="278" x="630">полоса прокрутки</tspan></text>
<text style="text-anchor:end;text-align:end">
<tspan x="610" y="322">Горизонтальная</tspan><tspan x="630" y="336">полоса прокрутки</tspan></text>
</g>
<text y="48.627445" x="110" style="text-anchor:middle;text-align:center" xml:space="preserve" font-family="Liberation Mono">
<tspan y="48.627445" x="110">Файл  Правка  Вид  Помощь</tspan>
</text>
<g font-family="Serif" font-weight="bold">
<text y="718.32703" x="241" style="word-spacing:0px;letter-spacing:2px;text-anchor:middle;text-align:center;font-size:16px;font-weight:bold" transform="translate(0 -692)">Окно</text>
<text y="31.123611" x="493">
<tspan y="28" x="493">Заголовок окна и</tspan><tspan y="41" x="493">кнопки управления</tspan>
</text>
<text y="52.988178" x="493">
<tspan y="52.988178" x="493">Строка меню</tspan><tspan y="85.488182" x="493">Подменю</tspan>
</text>
<text y="349.84644" x="493">Строка состояния</text>
<text y="202.11395" x="493">Контекстное меню</text>
</g>
</g>
<g font-size="13px" font-family="Liberation Mono">
<text y="68.524216" x="60" fill="#eee">
<tspan y="68.524216" x="60">Отменить</tspan>
<tspan y="84.774216" x="60">Повторить</tspan>
<tspan y="101.02422" x="60">Вырезать</tspan>
<tspan y="117.27422" x="60">Копировать</tspan>
<tspan y="133.52422" x="60">Вставить</tspan>
<tspan y="149.77422" x="60">Удалить</tspan>
</text>
<text y="176.2869" x="255.74088">
<tspan y="176.2869" x="255.74088">Отменить</tspan>
<tspan y="192.5369" x="255.74088">Повторить</tspan>
<tspan y="208.7869" x="255.74088">Вырезать</tspan>
<tspan y="225.0369" x="255.74088">Копировать</tspan>
<tspan y="241.2869" x="255.74088">Вставить</tspan>
<tspan y="257.5369" x="255.74088">Удалить</tspan>
</text>
<text y="349.28467" x="42.042507" style="text-anchor:middle;text-align:center">
<tspan y="349.28467" x="42.042507">Состояние</tspan>
</text>
</g>
<text font-size="13px" font-family="Serif" y="154.7383" x="489" font-weight="bold" fill="#09f">Содержимое окна</text>
</g>
</g>
</switch>
<g stroke="#333" stroke-width="3" fill="none">
<path marker-start="url(#DotSC)" marker-end="url(#Arrow2SendV)" d="m486 27s-62.19 13.27-122.4-5.275"/>
<path marker-start="url(#DotSC)" marker-end="url(#Arrow2SendV)" d="m486.2 196.6s-94.8-56.31-177.8-3.564"/>
<path marker-start="url(#DotSC)" marker-end="url(#Arrow2SendV)" d="m538.1 251s-33.32-26.02-64.5 1.782"/>
<path marker-start="url(#DotSC)" marker-end="url(#Arrow2SendV)" d="m526.1 310s-49.97-22.42-85.75 19.33"/>
<path marker-start="url(#DotSC)" marker-end="url(#Arrow2SendV)" d="m487.7 345.7s-18.35-15.29-43.8 2.502"/>
<path marker-start="url(#DotSC)" marker-end="url(#Arrow2SendV)" d="m484 49s-19.61 13.02-38.26-3.006"/>
<path marker-start="url(#DotSC)" marker-end="url(#Arrow2SendV)" d="m484.2 81s-188.2 60.31-369.4 10.82"/>
<path marker-start="url(#DotSC)" marker-end="url(#Arrow2SendV)" d="m485.9 7s-13.53 20.02-31.21-0.8783"/>
</g>
</svg>